<!DOCTYPE svg PUBLIC "-//W3C//DTD SVG 1.1//EN" "http://www.w3.org/Graphics/SVG/1.1/DTD/svg11.dtd">
<svg version="1.1" xmlns="http://www.w3.org/2000/svg" width="256" height="256" viewbox="0 0 256 256">
	<title>Erkunden</title>
	<path d="M50,192 L128,64 L206,192 Z" stroke-width="5" stroke="#000000" fill="none" />
	<path d="M50,192 L180,150" stroke-width="5" stroke="#000000" fill="none" />
</svg>
