<!DOCTYPE svg PUBLIC "-//W3C//DTD SVG 1.1//EN" "http://www.w3.org/Graphics/SVG/1.1/DTD/svg11.dtd">
<svg version="1.1" xmlns="http://www.w3.org/2000/svg" width="256" height="256" viewbox="0 0 256 256">
	<title>Schienenfahrzeug</title>
	<defs>
		<clipPath id="symbol">
			<path d="M10,64 L10,192 L246,192 L246,64 Q128,100 10,64 Z" />
		</clipPath>
	</defs>
	<path d="M10,64 L10,192 L246,192 L246,64 Q128,100 10,64 Z" fill="#FFFFFF" stroke-width="10" stroke="#000000" clip-path="url(#symbol)" />
	<path d="M10,64 L10,192 L246,192 L246,64 Q128,100 10,64 Z" fill="none" stroke-width="1" stroke="#000000" />
	<ellipse cx="24" cy="210" rx="10" ry="10" stroke="#000000" fill="none" stroke-width="5" />
	<ellipse cx="50" cy="210" rx="10" ry="10" stroke="#000000" fill="none" stroke-width="5" />
	<ellipse cx="206" cy="210" rx="10" ry="10" stroke="#000000" fill="none" stroke-width="5" />
	<ellipse cx="232" cy="210" rx="10" ry="10" stroke="#000000" fill="none" stroke-width="5" />
</svg>
