{
    "type": "FeatureCollection",
    "features": [
        {
            "type": "Feature",
            "properties": {},
            "geometry": {
                "type": "LineString",
                "coordinates": [
                    [
                        10.8817060026414,
                        49.8964834663963,
                        0
                    ],
                    [
                        10.8802077459621,
                        49.8963616748792,
                        0
                    ],
                    [
                        10.8799861536189,
                        49.8964004053073,
                        0
                    ],
                    [
                        10.8798253595655,
                        49.8965008456456,
                        0
                    ],
                    [
                        10.8785981777583,
                        49.8975742475558,
                        0
                    ],
                    [
                        10.8772967437803,
                        49.8986825422187,
                        0
                    ],
                    [
                        10.8768795756896,
                        49.8990302696949,
                        0
                    ],
                    [
                        10.8763156008131,
                        49.8994700278346,
                        0
                    ],
                    [
                        10.8760572132206,
                        49.8996882319382,
                        0
                    ],
                    [
                        10.8759901265684,
                        49.8998060002203,
                        0
                    ],
                    [
                        10.8756190940335,
                        49.9002589372404,
                        0
                    ],
                    [
                        10.8754869325276,
                        49.9003215462187,
                        0
                    ],
                    [
                        10.8752361727244,
                        49.9003191145697,
                        0
                    ],
                    [
                        10.8749111385235,
                        49.9003205254616,
                        0
                    ],
                    [
                        10.8744937993792,
                        49.9003415758799,
                        0
                    ],
                    [
                        10.8736029084108,
                        49.9004067789018,
                        0
                    ],
                    [
                        10.8732426071381,
                        49.9004496951216,
                        0
                    ],
                    [
                        10.8729704609967,
                        49.9004841112243,
                        0
                    ],
                    [
                        10.8728157819341,
                        49.9004941323236,
                        0
                    ],
                    [
                        10.8723007715019,
                        49.9004617441702,
                        0
                    ],
                    [
                        10.8722340039385,
                        49.9004388165597,
                        0
                    ],
                    [
                        10.8719506717924,
                        49.9003259951097,
                        0
                    ],
                    [
                        10.8715483946461,
                        49.9001555103193,
                        0
                    ],
                    [
                        10.871246161838,
                        49.9000042838965,
                        0
                    ],
                    [
                        10.8708859185934,
                        49.8997816928413,
                        0
                    ],
                    [
                        10.8704738156455,
                        49.8996440718026,
                        0
                    ],
                    [
                        10.8701411213088,
                        49.8996055861005,
                        0
                    ],
                    [
                        10.8697565103456,
                        49.8995840280315,
                        0
                    ],
                    [
                        10.8694692480408,
                        49.8995745962129,
                        0
                    ],
                    [
                        10.8689406834048,
                        49.8995661265757,
                        0
                    ],
                    [
                        10.8680376831622,
                        49.899544052596,
                        0
                    ],
                    [
                        10.8676274755962,
                        49.8995234682512,
                        0
                    ],
                    [
                        10.867171874389,
                        49.8994512412923,
                        0
                    ],
                    [
                        10.8669977354359,
                        49.8994155119451,
                        0
                    ],
                    [
                        10.8668121114946,
                        49.8993881771786,
                        0
                    ],
                    [
                        10.866682434768,
                        49.899382048859,
                        0
                    ],
                    [
                        10.8665734777645,
                        49.8993749075959,
                        0
                    ],
                    [
                        10.8664447116598,
                        49.8993298984781,
                        0
                    ],
                    [
                        10.8662579615357,
                        49.8992547588422,
                        0
                    ],
                    [
                        10.865977776202,
                        49.8991624883554,
                        0
                    ],
                    [
                        10.8655515413779,
                        49.8989508510433,
                        0
                    ],
                    [
                        10.8655030543202,
                        49.8989206738322,
                        0
                    ],
                    [
                        10.8653526032324,
                        49.8988291120718,
                        0
                    ],
                    [
                        10.8651947458622,
                        49.8987035615649,
                        0
                    ],
                    [
                        10.8650787457029,
                        49.898612336628,
                        0
                    ],
                    [
                        10.8650086784515,
                        49.8985215611078,
                        0
                    ],
                    [
                        10.8649534002958,
                        49.8984298704059,
                        0
                    ],
                    [
                        10.8649690838545,
                        49.8983908083297,
                        0
                    ],
                    [
                        10.8653765663384,
                        49.8982246925418,
                        0
                    ],
                    [
                        10.8659753608741,
                        49.8979958755565,
                        0
                    ],
                    [
                        10.866211353727,
                        49.8979109779997,
                        0
                    ],
                    [
                        10.8663429955536,
                        49.8978238972362,
                        0
                    ],
                    [
                        10.8665208842962,
                        49.8976170415472,
                        0
                    ],
                    [
                        10.8665368808633,
                        49.8975373350133,
                        0
                    ],
                    [
                        10.8666093480053,
                        49.8971787405278,
                        0
                    ],
                    [
                        10.8666500149524,
                        49.8969404109641,
                        0
                    ],
                    [
                        10.8667165070318,
                        49.8965980795438,
                        0
                    ],
                    [
                        10.8667323302873,
                        49.8962220124819,
                        0
                    ],
                    [
                        10.8667232407619,
                        49.8961055871324,
                        0
                    ],
                    [
                        10.8667238530686,
                        49.8959847135493,
                        0
                    ],
                    [
                        10.8666950059266,
                        49.8958182292896,
                        0
                    ],
                    [
                        10.8666868696536,
                        49.8956397140923,
                        0
                    ],
                    [
                        10.8667061913748,
                        49.8955403273562,
                        0
                    ],
                    [
                        10.8667497292441,
                        49.8953790832183,
                        0
                    ],
                    [
                        10.866808964481,
                        49.895233624482,
                        0
                    ],
                    [
                        10.86683716189,
                        49.8951412104935,
                        0
                    ],
                    [
                        10.8669677146398,
                        49.8949596634199,
                        0
                    ],
                    [
                        10.8671469128396,
                        49.8947982334902,
                        0
                    ],
                    [
                        10.8672617008772,
                        49.8946905676963,
                        0
                    ],
                    [
                        10.8676323551975,
                        49.8944433728766,
                        0
                    ],
                    [
                        10.8678483623458,
                        49.8943079870844,
                        0
                    ],
                    [
                        10.8679672237348,
                        49.8942260461796,
                        0
                    ],
                    [
                        10.8680698980137,
                        49.8942059764476,
                        0
                    ],
                    [
                        10.8682257149037,
                        49.894174175574,
                        0
                    ],
                    [
                        10.8684390351423,
                        49.8941535932099,
                        0
                    ],
                    [
                        10.8691912710763,
                        49.8940914276481,
                        0
                    ],
                    [
                        10.8692590873556,
                        49.8940884376671,
                        0
                    ],
                    [
                        10.8693409257172,
                        49.8940928867875,
                        0
                    ],
                    [
                        10.8694200828816,
                        49.8941160816342,
                        0
                    ],
                    [
                        10.8700191756947,
                        49.8942944074056,
                        0
                    ],
                    [
                        10.8701618000848,
                        49.8943261610802,
                        0
                    ],
                    [
                        10.8707105683367,
                        49.8944341038563,
                        0
                    ],
                    [
                        10.8710181763005,
                        49.8944824267209,
                        0
                    ],
                    [
                        10.8712086899113,
                        49.8945371637697,
                        0
                    ],
                    [
                        10.8713196285973,
                        49.8945941479452,
                        0
                    ],
                    [
                        10.8714939152055,
                        49.8946426828729,
                        0
                    ],
                    [
                        10.8717164935607,
                        49.8946722816017,
                        0
                    ],
                    [
                        10.8720659765845,
                        49.8947467729049,
                        0
                    ],
                    [
                        10.8721762078723,
                        49.8947702681221,
                        0
                    ],
                    [
                        10.8723070190577,
                        49.894779021264,
                        0
                    ],
                    [
                        10.8724119656749,
                        49.8947747960788,
                        0
                    ],
                    [
                        10.8725529722288,
                        49.8947632814305,
                        0
                    ],
                    [
                        10.8727648396506,
                        49.894695371901,
                        0
                    ],
                    [
                        10.8728979177155,
                        49.8946170928582,
                        0
                    ],
                    [
                        10.8730809047333,
                        49.8944904013943,
                        0
                    ],
                    [
                        10.8733505740279,
                        49.8943600596006,
                        0
                    ],
                    [
                        10.8735959090304,
                        49.8942702759561,
                        0
                    ],
                    [
                        10.87369841185,
                        49.8942439954133,
                        0
                    ],
                    [
                        10.8738050429306,
                        49.8942284900317,
                        0
                    ],
                    [
                        10.874465518802,
                        49.894152525667,
                        0
                    ],
                    [
                        10.8746359850626,
                        49.894100572482,
                        0
                    ],
                    [
                        10.8748463467852,
                        49.8940187636551,
                        0
                    ],
                    [
                        10.8750515599762,
                        49.8938898677905,
                        0
                    ],
                    [
                        10.8751873521718,
                        49.893756194022,
                        0
                    ],
                    [
                        10.8752305235648,
                        49.8937223857758,
                        0
                    ],
                    [
                        10.8753164420917,
                        49.8936730194974,
                        0
                    ],
                    [
                        10.8754699329111,
                        49.8936037722182,
                        0
                    ],
                    [
                        10.87548902064,
                        49.8935423487794,
                        0
                    ],
                    [
                        10.8755062730041,
                        49.8934078900318,
                        0
                    ],
                    [
                        10.8755020193819,
                        49.8932869135361,
                        0
                    ],
                    [
                        10.8755263852568,
                        49.8932253148479,
                        0
                    ],
                    [
                        10.8755697870475,
                        49.8930779808197,
                        0
                    ],
                    [
                        10.8756191187123,
                        49.8930002033062,
                        0
                    ],
                    [
                        10.8756907027136,
                        49.892941854268,
                        0
                    ],
                    [
                        10.8757202927528,
                        49.8928485067422,
                        0
                    ],
                    [
                        10.875634646202,
                        49.8926887229768,
                        0
                    ],
                    [
                        10.875490136028,
                        49.8924961439806,
                        0
                    ],
                    [
                        10.8753428828597,
                        49.8922137663926,
                        0
                    ],
                    [
                        10.8752173434054,
                        49.8919973187173,
                        0
                    ],
                    [
                        10.8749214641837,
                        49.891587043057,
                        0
                    ],
                    [
                        10.8746588172797,
                        49.891197648668,
                        0
                    ],
                    [
                        10.8747185174079,
                        49.8909129941003,
                        0
                    ],
                    [
                        10.8750630557815,
                        49.8909250329209,
                        0
                    ],
                    [
                        10.8758183866241,
                        49.891004677969,
                        0
                    ],
                    [
                        10.876575723684,
                        49.8910656951334,
                        0
                    ],
                    [
                        10.8767665116746,
                        49.8910846186519,
                        0
                    ],
                    [
                        10.8770230713175,
                        49.8910835498818,
                        0
                    ],
                    [
                        10.8771649973022,
                        49.8910829584059,
                        0
                    ],
                    [
                        10.8779182479944,
                        49.8910211423584,
                        0
                    ],
                    [
                        10.878074297127,
                        49.8910097974927,
                        0
                    ],
                    [
                        10.8782485154467,
                        49.8909851628489,
                        0
                    ],
                    [
                        10.8786480039081,
                        49.8910223076753,
                        0
                    ],
                    [
                        10.8788017208332,
                        49.8910364986461,
                        0
                    ],
                    [
                        10.8790080387992,
                        49.8910437867697,
                        0
                    ],
                    [
                        10.8790420895666,
                        49.8908471923015,
                        0
                    ],
                    [
                        10.8795524714883,
                        49.8907451928126,
                        0
                    ],
                    [
                        10.8797235517795,
                        49.8907172011546,
                        0
                    ],
                    [
                        10.8798270408353,
                        49.8907065547893,
                        0
                    ],
                    [
                        10.8799579174028,
                        49.8907162886937,
                        0
                    ],
                    [
                        10.8802795145732,
                        49.8907641886422,
                        0
                    ],
                    [
                        10.8806194145203,
                        49.8908825435846,
                        0
                    ],
                    [
                        10.8809525125645,
                        49.8909871049185,
                        0
                    ],
                    [
                        10.881490951159,
                        49.8910917025639,
                        0
                    ],
                    [
                        10.8819387328441,
                        49.8911749067097,
                        0
                    ],
                    [
                        10.8823609257638,
                        49.8912296434675,
                        0
                    ],
                    [
                        10.8826282728038,
                        49.8912511233744,
                        0
                    ],
                    [
                        10.8828282994117,
                        49.891263775958,
                        0
                    ],
                    [
                        10.8829808925312,
                        49.8912576696085,
                        0
                    ],
                    [
                        10.8831311407185,
                        49.8912515404751,
                        0
                    ],
                    [
                        10.8835068134472,
                        49.8912339444327,
                        0
                    ],
                    [
                        10.8837604116095,
                        49.8912212332174,
                        0
                    ],
                    [
                        10.8838432772776,
                        49.8911905672605,
                        0
                    ],
                    [
                        10.8841451506133,
                        49.8909877733954,
                        0
                    ],
                    [
                        10.8843044939808,
                        49.8909202113618,
                        0
                    ],
                    [
                        10.8843983116469,
                        49.8908928551844,
                        0
                    ],
                    [
                        10.8845178261242,
                        49.890850842051,
                        0
                    ],
                    [
                        10.8846359486872,
                        49.8906978632297,
                        0
                    ],
                    [
                        10.8847545229342,
                        49.8905252465292,
                        0
                    ],
                    [
                        10.8847920712774,
                        49.8904365226705,
                        0
                    ],
                    [
                        10.884932594878,
                        49.8903078738675,
                        0
                    ],
                    [
                        10.8849852179559,
                        49.8902570081803,
                        0
                    ],
                    [
                        10.8850573536388,
                        49.8902728110206,
                        0
                    ],
                    [
                        10.8852675887832,
                        49.8903851299701,
                        0
                    ],
                    [
                        10.8854671077953,
                        49.8904550394874,
                        0
                    ],
                    [
                        10.8856337021719,
                        49.8905004906204,
                        0
                    ],
                    [
                        10.88578235082,
                        49.8905168157426,
                        0
                    ],
                    [
                        10.8859560665763,
                        49.8904654386311,
                        0
                    ],
                    [
                        10.8863191371497,
                        49.8905937597378,
                        0
                    ],
                    [
                        10.8865741318217,
                        49.8906995633098,
                        0
                    ],
                    [
                        10.8867688663266,
                        49.8907620802307,
                        0
                    ],
                    [
                        10.8868255551524,
                        49.8907704392713,
                        0
                    ],
                    [
                        10.8870883313328,
                        49.8907640196608,
                        0
                    ],
                    [
                        10.8871240546309,
                        49.8907448745166,
                        0
                    ],
                    [
                        10.8871531669197,
                        49.890690246781,
                        0
                    ],
                    [
                        10.8872023707293,
                        49.8905993748403,
                        0
                    ],
                    [
                        10.8875386660344,
                        49.8903806001113,
                        0
                    ],
                    [
                        10.8876939348601,
                        49.890338620561,
                        0
                    ],
                    [
                        10.8877769445139,
                        49.8902851479131,
                        0
                    ],
                    [
                        10.8877991076471,
                        49.8902583695759,
                        0
                    ],
                    [
                        10.8877310778937,
                        49.8902117070164,
                        0
                    ],
                    [
                        10.8871388366308,
                        49.8901510756295,
                        0
                    ],
                    [
                        10.8866311318596,
                        49.8900546225582,
                        0
                    ],
                    [
                        10.8865028576031,
                        49.8900148232478,
                        0
                    ],
                    [
                        10.8864869608685,
                        49.8899390323129,
                        0
                    ],
                    [
                        10.8865974350883,
                        49.8898131748048,
                        0
                    ],
                    [
                        10.8865694016753,
                        49.8897101623632,
                        0
                    ],
                    [
                        10.8867935306051,
                        49.8895234476351,
                        0
                    ],
                    [
                        10.886628032959,
                        49.889397962567,
                        0
                    ],
                    [
                        10.8864581031372,
                        49.8892618581842,
                        0
                    ],
                    [
                        10.8865788767304,
                        49.889196536816,
                        0
                    ],
                    [
                        10.8866745105157,
                        49.889154298826,
                        0
                    ],
                    [
                        10.886820886918,
                        49.8890690361027,
                        0
                    ],
                    [
                        10.8869278154927,
                        49.8890573228911,
                        0
                    ],
                    [
                        10.8869846192854,
                        49.889092725051,
                        0
                    ],
                    [
                        10.8870479543966,
                        49.889115704993,
                        0
                    ],
                    [
                        10.8872184366438,
                        49.8891860158596,
                        0
                    ],
                    [
                        10.8873442423161,
                        49.8892056509393,
                        0
                    ],
                    [
                        10.8875113392746,
                        49.8891253190806,
                        0
                    ],
                    [
                        10.8876003941383,
                        49.8890963788214,
                        0
                    ],
                    [
                        10.8878514692491,
                        49.8892080334277,
                        0
                    ],
                    [
                        10.8881208791506,
                        49.8891907537196,
                        0
                    ],
                    [
                        10.8882488928214,
                        49.8891868725805,
                        0
                    ],
                    [
                        10.8883367261639,
                        49.8891630284554,
                        0
                    ],
                    [
                        10.8884713505531,
                        49.888990517523,
                        0
                    ],
                    [
                        10.8884744283732,
                        49.8888564717114,
                        0
                    ],
                    [
                        10.8885529594003,
                        49.8887532496962,
                        0
                    ],
                    [
                        10.8886602043385,
                        49.8886584009545,
                        0
                    ],
                    [
                        10.8887121743069,
                        49.8885682261149,
                        0
                    ],
                    [
                        10.8887149627774,
                        49.8885633877357,
                        0
                    ],
                    [
                        10.888836466524,
                        49.8884036597868,
                        0
                    ],
                    [
                        10.8892285611237,
                        49.8880853577229,
                        0
                    ],
                    [
                        10.88969830308,
                        49.8878129989074,
                        0
                    ],
                    [
                        10.8897881264783,
                        49.8877651328448,
                        0
                    ],
                    [
                        10.8898415798957,
                        49.887756168946,
                        0
                    ],
                    [
                        10.890053338812,
                        49.8875980371735,
                        0
                    ],
                    [
                        10.8902828838918,
                        49.8875821027411,
                        0
                    ],
                    [
                        10.8902668045034,
                        49.8874285803738,
                        0
                    ],
                    [
                        10.8902907967894,
                        49.8873389185366,
                        0
                    ],
                    [
                        10.8903436187417,
                        49.8872789867251,
                        0
                    ],
                    [
                        10.8904957165861,
                        49.8872050717256,
                        0
                    ],
                    [
                        10.8906725871447,
                        49.8871083768927,
                        0
                    ],
                    [
                        10.8909197245324,
                        49.88697402338,
                        0
                    ],
                    [
                        10.8911625524775,
                        49.8868140398579,
                        0
                    ],
                    [
                        10.8915124740756,
                        49.88699100062,
                        0
                    ],
                    [
                        10.8914500942198,
                        49.8870599071879,
                        0
                    ],
                    [
                        10.8913772205108,
                        49.8871785741354,
                        0
                    ],
                    [
                        10.8913436780543,
                        49.887315748217,
                        0
                    ],
                    [
                        10.8912974805092,
                        49.887578479574,
                        0
                    ],
                    [
                        10.8912719711709,
                        49.8876897736065,
                        0
                    ],
                    [
                        10.8912465493441,
                        49.8877786754926,
                        0
                    ],
                    [
                        10.8911875640635,
                        49.8879035188157,
                        0
                    ],
                    [
                        10.8911984240612,
                        49.887939884994,
                        0
                    ],
                    [
                        10.8912486161993,
                        49.8879947583901,
                        0
                    ],
                    [
                        10.8914177045851,
                        49.8880658776848,
                        0
                    ],
                    [
                        10.8913286010196,
                        49.8881783457162,
                        0
                    ],
                    [
                        10.8910080160263,
                        49.8880753055096,
                        0
                    ],
                    [
                        10.8906797390135,
                        49.8884158737728,
                        0
                    ],
                    [
                        10.8905287731777,
                        49.8885877135919,
                        0
                    ],
                    [
                        10.8901828725317,
                        49.8893481046602,
                        0
                    ],
                    [
                        10.8900704978229,
                        49.8895488357355,
                        0
                    ],
                    [
                        10.8902892633549,
                        49.8895670293727,
                        0
                    ],
                    [
                        10.8904934330994,
                        49.8896112885164,
                        0
                    ],
                    [
                        10.8910104509243,
                        49.8897650402276,
                        0
                    ],
                    [
                        10.8910537947233,
                        49.8897833114807,
                        0
                    ],
                    [
                        10.8910649337229,
                        49.8897997867099,
                        0
                    ],
                    [
                        10.8910726915629,
                        49.8898612002048,
                        0
                    ],
                    [
                        10.8910645115897,
                        49.8899136207144,
                        0
                    ],
                    [
                        10.8908354635714,
                        49.8905125510077,
                        0
                    ],
                    [
                        10.8908345517642,
                        49.8908585453373,
                        0
                    ],
                    [
                        10.8908920149629,
                        49.8909226329004,
                        0
                    ],
                    [
                        10.8912028331416,
                        49.8910146709839,
                        0
                    ],
                    [
                        10.8914168425743,
                        49.8910650666768,
                        0
                    ],
                    [
                        10.8915684121266,
                        49.8910846466016,
                        0
                    ],
                    [
                        10.8917042367722,
                        49.8910768791182,
                        0
                    ],
                    [
                        10.8926805322453,
                        49.8913027066642,
                        0
                    ],
                    [
                        10.8929403323528,
                        49.891374173394,
                        0
                    ],
                    [
                        10.8932189208204,
                        49.8914291669546,
                        0
                    ],
                    [
                        10.8934276722985,
                        49.8914787358189,
                        0
                    ],
                    [
                        10.8939113873302,
                        49.8915808827743,
                        0
                    ],
                    [
                        10.8941230817013,
                        49.89165441609,
                        0
                    ],
                    [
                        10.8967138584518,
                        49.8913143231988,
                        0
                    ],
                    [
                        10.8969011097536,
                        49.8913541658957,
                        0
                    ],
                    [
                        10.8970821467191,
                        49.8913758699953,
                        0
                    ],
                    [
                        10.8984010752434,
                        49.89208465415,
                        0
                    ],
                    [
                        10.8990070249601,
                        49.8924472344621,
                        0
                    ],
                    [
                        10.8993685075584,
                        49.892679034345,
                        0
                    ],
                    [
                        10.8994338009257,
                        49.8927224731172,
                        0
                    ],
                    [
                        10.8994955201755,
                        49.8927287680223,
                        0
                    ],
                    [
                        10.899557498983,
                        49.8927236469222,
                        0
                    ],
                    [
                        10.8996080292267,
                        49.8927090394685,
                        0
                    ],
                    [
                        10.899692008382,
                        49.8926432287196,
                        0
                    ],
                    [
                        10.8996776284621,
                        49.8926278677077,
                        0
                    ],
                    [
                        10.8996838215967,
                        49.8926146049584,
                        0
                    ],
                    [
                        10.8999085591274,
                        49.8924473635158,
                        0
                    ],
                    [
                        10.9000912845522,
                        49.8923139785012,
                        0
                    ],
                    [
                        10.9001482370945,
                        49.8922707479638,
                        0
                    ],
                    [
                        10.9001545597511,
                        49.8922517771994,
                        0
                    ],
                    [
                        10.9001236886638,
                        49.8922312484005,
                        0
                    ],
                    [
                        10.9000185946344,
                        49.8921686826666,
                        0
                    ],
                    [
                        10.899870316541,
                        49.892279549045,
                        0
                    ],
                    [
                        10.8997109102634,
                        49.8923866879506,
                        0
                    ],
                    [
                        10.8994831740236,
                        49.8925402604121,
                        0
                    ],
                    [
                        10.8991871888638,
                        49.89273664509,
                        0
                    ],
                    [
                        10.8983052360601,
                        49.893307743078,
                        0
                    ],
                    [
                        10.8978105092231,
                        49.8936145089586,
                        0
                    ],
                    [
                        10.8972596428284,
                        49.8939243606387,
                        0
                    ],
                    [
                        10.8968638023678,
                        49.8941418872754,
                        0
                    ],
                    [
                        10.8962099867865,
                        49.8944721177073,
                        0
                    ],
                    [
                        10.8953201452775,
                        49.8948946279979,
                        0
                    ],
                    [
                        10.8948214317657,
                        49.8951289090531,
                        0
                    ],
                    [
                        10.8938588632434,
                        49.8955434716457,
                        0
                    ],
                    [
                        10.8927953827789,
                        49.8959570628922,
                        0
                    ],
                    [
                        10.892393411653,
                        49.8961178803765,
                        0
                    ],
                    [
                        10.8918292598746,
                        49.8963421523156,
                        0
                    ],
                    [
                        10.89170402331,
                        49.8963631345633,
                        0
                    ],
                    [
                        10.8914896929987,
                        49.8964190334129,
                        0
                    ],
                    [
                        10.8906529623995,
                        49.8967224992971,
                        0
                    ],
                    [
                        10.8900457692818,
                        49.8969327559193,
                        0
                    ],
                    [
                        10.8897823396268,
                        49.897036499817,
                        0
                    ],
                    [
                        10.8896060790765,
                        49.8971434634717,
                        0
                    ],
                    [
                        10.8894245446686,
                        49.8972358895411,
                        0
                    ],
                    [
                        10.8892690274989,
                        49.8973070938249,
                        0
                    ],
                    [
                        10.8892277215775,
                        49.8973560159412,
                        0
                    ],
                    [
                        10.8888745114376,
                        49.8975135639916,
                        0
                    ],
                    [
                        10.8886675958898,
                        49.8975998341763,
                        0
                    ],
                    [
                        10.8883868156275,
                        49.8977528834378,
                        0
                    ],
                    [
                        10.888083170927,
                        49.8979921624498,
                        0
                    ],
                    [
                        10.8879464109402,
                        49.898123529755,
                        0
                    ],
                    [
                        10.8879603892867,
                        49.8981729881393,
                        0
                    ],
                    [
                        10.888052666905,
                        49.8982473646902,
                        0
                    ],
                    [
                        10.8882399384526,
                        49.8982779177065,
                        0
                    ],
                    [
                        10.8887037229857,
                        49.8983302921049,
                        0
                    ],
                    [
                        10.8890779372114,
                        49.8984132452265,
                        0
                    ],
                    [
                        10.8892307747452,
                        49.898428004732,
                        0
                    ],
                    [
                        10.889331079823,
                        49.8983682547764,
                        0
                    ],
                    [
                        10.8893873875581,
                        49.8982857163516,
                        0
                    ],
                    [
                        10.8895677002124,
                        49.8983273930146,
                        0
                    ],
                    [
                        10.8897178877033,
                        49.8983795347581,
                        0
                    ],
                    [
                        10.8899452248294,
                        49.8984903620099,
                        0
                    ],
                    [
                        10.8904492735399,
                        49.8987595696773,
                        0
                    ],
                    [
                        10.8909150017933,
                        49.8989885700447,
                        0
                    ],
                    [
                        10.8911717774113,
                        49.8991084221331,
                        0
                    ],
                    [
                        10.8915082562213,
                        49.8992803565567,
                        0
                    ],
                    [
                        10.8920063862907,
                        49.8995639878398,
                        0
                    ],
                    [
                        10.8924762400292,
                        49.8994487581693,
                        0
                    ],
                    [
                        10.8927718054478,
                        49.8993277901282,
                        0
                    ],
                    [
                        10.8924217091503,
                        49.899062432955,
                        0
                    ],
                    [
                        10.8924369516595,
                        49.8988799765495,
                        0
                    ],
                    [
                        10.8925391544446,
                        49.8983340754671,
                        0
                    ],
                    [
                        10.8926596342961,
                        49.8979694339048,
                        0
                    ],
                    [
                        10.8927687976932,
                        49.8975647408885,
                        0
                    ],
                    [
                        10.8928446995451,
                        49.8972323733619,
                        0
                    ],
                    [
                        10.8928651559113,
                        49.8970787937003,
                        0
                    ],
                    [
                        10.8928528842068,
                        49.8970512952136,
                        0
                    ],
                    [
                        10.8927814325825,
                        49.8970327556919,
                        0
                    ],
                    [
                        10.892702556289,
                        49.8970165262235,
                        0
                    ],
                    [
                        10.8926197770434,
                        49.8970097833778,
                        0
                    ],
                    [
                        10.8920077186995,
                        49.8970182234891,
                        0
                    ],
                    [
                        10.8918204981924,
                        49.8970180919256,
                        0
                    ],
                    [
                        10.8916778114325,
                        49.8969847754729,
                        0
                    ],
                    [
                        10.8916000742586,
                        49.8969233219456,
                        0
                    ],
                    [
                        10.8908895577494,
                        49.8955006475058,
                        0
                    ],
                    [
                        10.8905980328149,
                        49.8951052036309,
                        0
                    ],
                    [
                        10.8904946949201,
                        49.8950818479885,
                        0
                    ],
                    [
                        10.8896912070398,
                        49.8954342712849,
                        0
                    ],
                    [
                        10.8888810229775,
                        49.8957790747172,
                        0
                    ],
                    [
                        10.8879887624863,
                        49.8958396211694,
                        0
                    ],
                    [
                        10.8871521402028,
                        49.8958839833751,
                        0
                    ],
                    [
                        10.8870362133963,
                        49.8958828709251,
                        0
                    ],
                    [
                        10.8869151763449,
                        49.8958638752708,
                        0
                    ],
                    [
                        10.8868170408818,
                        49.8958094312293,
                        0
                    ],
                    [
                        10.8865391967076,
                        49.8956462576147,
                        0
                    ],
                    [
                        10.8863536400816,
                        49.8955517389233,
                        0
                    ],
                    [
                        10.8863049422181,
                        49.8955084695854,
                        0
                    ],
                    [
                        10.8860483617792,
                        49.8953811670604,
                        0
                    ],
                    [
                        10.886007835165,
                        49.8953407509647,
                        0
                    ],
                    [
                        10.885996443625,
                        49.8953051445277,
                        0
                    ],
                    [
                        10.8860315165907,
                        49.8952668291157,
                        0
                    ],
                    [
                        10.8863935230478,
                        49.8950833547994,
                        0
                    ],
                    [
                        10.886657847576,
                        49.8949525815873,
                        0
                    ],
                    [
                        10.8867565661969,
                        49.8949077775296,
                        0
                    ],
                    [
                        10.8867817809399,
                        49.8948733113722,
                        0
                    ],
                    [
                        10.8867920499827,
                        49.8947984717976,
                        0
                    ],
                    [
                        10.8868031770358,
                        49.8947394169091,
                        0
                    ],
                    [
                        10.8868124665135,
                        49.8947071643491,
                        0
                    ],
                    [
                        10.8868460636347,
                        49.8946798780393,
                        0
                    ],
                    [
                        10.8870224173094,
                        49.8946491651885,
                        0
                    ],
                    [
                        10.8872583095662,
                        49.8945946972273,
                        0
                    ],
                    [
                        10.8873392101952,
                        49.8945812746161,
                        0
                    ],
                    [
                        10.8873738729462,
                        49.894577921116,
                        0
                    ],
                    [
                        10.8874225796733,
                        49.8945732774933,
                        0
                    ],
                    [
                        10.887463846333,
                        49.8945481189009,
                        0
                    ],
                    [
                        10.8874657205516,
                        49.8944586707664,
                        0
                    ],
                    [
                        10.8874678905128,
                        49.8943773268408,
                        0
                    ],
                    [
                        10.8874607792501,
                        49.894298954678,
                        0
                    ],
                    [
                        10.8874514359749,
                        49.8942401370883,
                        0
                    ],
                    [
                        10.8874421365752,
                        49.8941018644424,
                        0
                    ],
                    [
                        10.8874231235428,
                        49.8939208920454,
                        0
                    ],
                    [
                        10.88740512531,
                        49.8937733237077,
                        0
                    ],
                    [
                        10.8874010756626,
                        49.8937168599504,
                        0
                    ],
                    [
                        10.8874188350126,
                        49.893642180958,
                        0
                    ],
                    [
                        10.8874527657654,
                        49.8935618994542,
                        0
                    ],
                    [
                        10.8874473308973,
                        49.8934881494766,
                        0
                    ],
                    [
                        10.8874287919262,
                        49.8932237685855,
                        0
                    ],
                    [
                        10.8874503110145,
                        49.8931015896988,
                        0
                    ],
                    [
                        10.8875327529081,
                        49.892872719193,
                        0
                    ],
                    [
                        10.8876261888604,
                        49.8923689647962,
                        0
                    ],
                    [
                        10.8876189284281,
                        49.8922948398129,
                        0
                    ],
                    [
                        10.8873643912945,
                        49.8922527782756,
                        0
                    ],
                    [
                        10.8872750147056,
                        49.8922678972548,
                        0
                    ],
                    [
                        10.8871253435981,
                        49.892323976466,
                        0
                    ],
                    [
                        10.8869071891027,
                        49.8924119268287,
                        0
                    ],
                    [
                        10.8867499090444,
                        49.8925388462264,
                        0
                    ],
                    [
                        10.8867043271573,
                        49.8925947217755,
                        0
                    ],
                    [
                        10.8865389176854,
                        49.8928168190423,
                        0
                    ],
                    [
                        10.8863407309859,
                        49.8931438225265,
                        0
                    ],
                    [
                        10.8862042834265,
                        49.8932800068037,
                        0
                    ],
                    [
                        10.8857809071793,
                        49.8938282769426,
                        0
                    ],
                    [
                        10.885761218908,
                        49.8938370791267,
                        0
                    ],
                    [
                        10.8857194525044,
                        49.893837576973,
                        0
                    ],
                    [
                        10.8856760006688,
                        49.8938342164837,
                        0
                    ],
                    [
                        10.8855846562349,
                        49.8938068579517,
                        0
                    ],
                    [
                        10.8854326739369,
                        49.8937787552925,
                        0
                    ],
                    [
                        10.8852793516632,
                        49.8937334647089,
                        0
                    ],
                    [
                        10.8851768818224,
                        49.893714348575,
                        0
                    ],
                    [
                        10.8851182143452,
                        49.8937228501825,
                        0
                    ],
                    [
                        10.8850198445436,
                        49.893760808726,
                        0
                    ],
                    [
                        10.8844490826292,
                        49.8936307033357,
                        0
                    ],
                    [
                        10.884291281193,
                        49.8936100135408,
                        0
                    ],
                    [
                        10.8838261574462,
                        49.8937663264809,
                        0
                    ],
                    [
                        10.883400929519,
                        49.8939654772021,
                        0
                    ],
                    [
                        10.8830454734129,
                        49.8941501410885,
                        0
                    ],
                    [
                        10.8827664347375,
                        49.8943142758105,
                        0
                    ],
                    [
                        10.8826868695458,
                        49.8943326810728,
                        0
                    ],
                    [
                        10.8816244804983,
                        49.8936997877758,
                        0
                    ],
                    [
                        10.8817074916877,
                        49.8936531474772,
                        0
                    ],
                    [
                        10.8821074219433,
                        49.8938761310387,
                        0
                    ],
                    [
                        10.8831049136065,
                        49.8934789316913,
                        0
                    ],
                    [
                        10.8837928260171,
                        49.8932312983658,
                        0
                    ],
                    [
                        10.884136182591,
                        49.8931014787842,
                        0
                    ],
                    [
                        10.8846918856173,
                        49.8928356323302,
                        0
                    ],
                    [
                        10.8852005994647,
                        49.8925166298845,
                        0
                    ],
                    [
                        10.8849030437436,
                        49.8922843445418,
                        0
                    ],
                    [
                        10.8847736996519,
                        49.8921389491817,
                        0
                    ],
                    [
                        10.8846995198968,
                        49.8920335985242,
                        0
                    ],
                    [
                        10.8844816197367,
                        49.8917062787337,
                        0
                    ],
                    [
                        10.884789318868,
                        49.8916542463239,
                        0
                    ],
                    [
                        10.8852034946809,
                        49.8915433976702,
                        0
                    ],
                    [
                        10.8853301194857,
                        49.8914644131805,
                        0
                    ],
                    [
                        10.8857471014995,
                        49.8910972727294,
                        0
                    ],
                    [
                        10.886315879086,
                        49.8912760740831,
                        0
                    ],
                    [
                        10.8868453830976,
                        49.891438294496,
                        0
                    ],
                    [
                        10.8872610805192,
                        49.8915661801049,
                        0
                    ],
                    [
                        10.8877084200286,
                        49.8917245914733,
                        0
                    ],
                    [
                        10.8880195006478,
                        49.8919893200405,
                        0
                    ],
                    [
                        10.8883667472027,
                        49.8923063735845,
                        0
                    ],
                    [
                        10.8883032205126,
                        49.8927090209695,
                        0
                    ],
                    [
                        10.8882906942845,
                        49.892916790791,
                        0
                    ],
                    [
                        10.8887064183235,
                        49.8933067369577,
                        0
                    ],
                    [
                        10.8891606571505,
                        49.8937122486394,
                        0
                    ],
                    [
                        10.8893396754983,
                        49.8938391369525,
                        0
                    ],
                    [
                        10.8897433870911,
                        49.8941959514192,
                        0
                    ],
                    [
                        10.8898284414635,
                        49.894301724851,
                        0
                    ],
                    [
                        10.8898634259484,
                        49.8943536700614,
                        0
                    ],
                    [
                        10.8898695309991,
                        49.8943984855234,
                        0
                    ],
                    [
                        10.8898516304514,
                        49.8944366348586,
                        0
                    ],
                    [
                        10.8898109697464,
                        49.8944841750769,
                        0
                    ],
                    [
                        10.8897462945408,
                        49.8945247350318,
                        0
                    ],
                    [
                        10.8894352501475,
                        49.8946601150131,
                        0
                    ]
                ]
            }
        }
    ]
}
