<!DOCTYPE svg PUBLIC "-//W3C//DTD SVG 1.1//EN" "http://www.w3.org/Graphics/SVG/1.1/DTD/svg11.dtd">
<svg version="1.1" xmlns="http://www.w3.org/2000/svg" width="256" height="256" viewbox="0 0 256 256">
	<title>Fortentwickelter Brand</title>
	<defs>
		<clipPath id="flamme1">
			<path d="M83,192 l40,-128 l0,128 Z" />
		</clipPath>
		<clipPath id="flamme2">
			<path d="M123,192 l40,-128 l0,128 Z" />
		</clipPath>
	</defs>
	<path d="M83,192 l40,-128 l0,128 Z" stroke-width="10" stroke="#ff0000" fill="none" clip-path="url(#flamme1)" />
	<path d="M123,192 l40,-128 l0,128 Z" stroke-width="10" stroke="#ff0000" fill="none" clip-path="url(#flamme2)" />
</svg>
