<!DOCTYPE svg PUBLIC "-//W3C//DTD SVG 1.1//EN" "http://www.w3.org/Graphics/SVG/1.1/DTD/svg11.dtd">
<svg version="1.1" xmlns="http://www.w3.org/2000/svg" width="256" height="256" viewbox="0 0 256 256">
	<title>Bereitstellungsraum</title>
	<defs>
		<clipPath id="base">
			<ellipse cx="128" cy="128" rx="64" ry="64" />
		</clipPath>
	</defs>
	<ellipse fill="#FFFF00" stroke="#000000" stroke-width="5" cx="128" cy="128" rx="64" ry="64" />
	<path d="M85,105 L85,151 L171,151 L171,105 Q128,128 85,105 Z" stroke="#000000" stroke-width="5" fill="none" />
</svg>
