<!DOCTYPE svg PUBLIC "-//W3C//DTD SVG 1.1//EN" "http://www.w3.org/Graphics/SVG/1.1/DTD/svg11.dtd">
<svg version="1.1" xmlns="http://www.w3.org/2000/svg" width="256" height="256" viewbox="0 0 256 256">
	<title>Sammeln</title>
	<path d="M10,128 l196,0 m-15,-15 l15,15 l-15,15" stroke="#000000" stroke-width="5" fill="none" />
	<ellipse cx="236" cy="128" rx="16" ry="16" stroke="#000000" stroke-width="3" fill="none" />
</svg>
