<!DOCTYPE svg PUBLIC "-//W3C//DTD SVG 1.1//EN" "http://www.w3.org/Graphics/SVG/1.1/DTD/svg11.dtd">
<svg version="1.1" xmlns="http://www.w3.org/2000/svg" width="256" height="256" viewbox="0 0 256 256">
	<title>Truppführer Betreuungstrupp</title>
	<defs>
		<clipPath id="person">
			<path d="M64,128 L128,64 L192,128 L128,192 Z" />
		</clipPath>
	</defs>
	<path d="M64,128 L128,64 L192,128 L128,192 Z" stroke-width="5" stroke="#000000" fill="#FFFFFF" />
	<path d="M128,64 L152,88 L104,88 Z" stroke-width="0" fill="#000000" />
	<ellipse cx="128" cy="44" rx="10" ry="10" fill="#000000" />
	<path d="M64,128 L128,64 L192,128 L128,192 Z" stroke-width="2" stroke="#000000" fill="none" />
	<path d="M96,160 l32,-32 l32,32" stroke="#000000" stroke-width="5" fill="none" />
</svg>
